<svg width="14" height="14" viewBox="0 0 14 14" fill="none" xmlns="http://www.w3.org/2000/svg">
<g clip-path="url(#clip0)">
<path fill-rule="evenodd" clip-rule="evenodd" d="M14.0001 2.8C14.0001 3.1864 13.6865 3.5 13.3001 3.5H11.9001V4.9C11.9001 5.2864 11.5865 5.6 11.2001 5.6C10.8137 5.6 10.5001 5.2864 10.5001 4.9V3.5H9.1001C8.7137 3.5 8.4001 3.1864 8.4001 2.8C8.4001 2.4136 8.7137 2.1 9.1001 2.1H10.5001V0.7C10.5001 0.3136 10.8137 0 11.2001 0C11.5865 0 11.9001 0.3136 11.9001 0.7V2.1H13.3001C13.6865 2.1 14.0001 2.4136 14.0001 2.8ZM8.2181 12.6H2.5285C1.972 12.6 1.6199 11.9693 1.9405 11.5143C2.6958 10.444 3.9376 9.74127 5.3432 9.73147C5.353 9.73147 5.3628 9.7342 5.3726 9.7342C5.3831 9.7342 5.3922 9.73147 5.4027 9.73147C6.809 9.74127 8.0515 10.4433 8.8061 11.5143C9.1267 11.9693 8.7753 12.6 8.2181 12.6ZM5.3726 5.5342C6.1447 5.5342 6.7726 6.1621 6.7726 6.9342C6.7726 7.6965 6.1601 8.31537 5.4027 8.33147C5.3922 8.33147 5.3831 8.32993 5.3726 8.32993C5.3628 8.32993 5.353 8.33147 5.3432 8.33147C4.5851 8.31537 3.9726 7.6965 3.9726 6.9342C3.9726 6.1621 4.6012 5.5342 5.3726 5.5342ZM7.4908 8.74658C8.0718 8.06898 8.3518 7.12608 8.0501 6.10688C7.7722 5.16608 6.9812 4.42329 6.0243 4.20769C4.1945 3.79539 2.5726 5.1751 2.5726 6.9342C2.5726 7.6293 2.8351 8.25728 3.2544 8.74658C1.7641 9.35558 0.593696 10.6266 0.070796 12.1799C-0.230204 13.0759 0.468396 14 1.4134 14H9.3318C10.2768 14 10.9761 13.0759 10.6744 12.1799C10.1515 10.6266 8.9818 9.35558 7.4908 8.74658Z" fill="#191F1D"/>
</g>
<defs>
<clipPath id="clip0">
<rect width="14" height="14" fill="white"/>
</clipPath>
</defs>
</svg>
